Adding information to tree data in TreeSummarizedExperiment — treeData • miaViz
…
The result of the accessors, rowTreeData and colTreeData,
contain at least a ‘node’ and ‘label’ column.

    Examples

data(GlobalPatterns)
td <- rowTreeData(GlobalPatterns)
td
#> # A tibble: 38,431 × 2
#>     node label 
#>    <int> <chr> 
#>  1     1 549322
#>  2     2 522457
#>  3     3 951   
#>  4     4 244423
#>  5     5 586076
#>  6     6 246140
#>  7     7 143239
#>  8     8 244960
#>  9     9 255340
#> 10    10 144887
#> # … with 38,421 more rows
td$test <- rnorm(nrow(td))
rowTreeData(GlobalPatterns) <- td
rowTreeData(GlobalPatterns)
#> # A tibble: 38,431 × 2
#>     node label 
#>    <int> <chr> 
#>  1     1 549322
#>  2     2 522457
#>  3     3 951   
#>  4     4 244423
#>  5     5 586076
#>  6     6 246140
#>  7     7 143239
#>  8     8 244960
#>  9     9 255340
#> 10    10 144887
#> # … with 38,421 more rows
…
